0101110111011101001101101010110010100110000110001000101110100001010100111101101011111010010100111000100010011100110111001010010100010100111001100100011100101100011100001000100100111111000001111000011110100011111100001101000111110001101110111100100100010001
max: 120.0
this: 110.0
balanced: true
1-0: 128-128

1010000010100011111111010100111010100011011011111111101111101010110111001101010101110011000010010001100001101010010001100011001011101111001000010100110000010010110011111110100111111010111001101010111110101000110111101101010101100111010111101111011101101001
max: 120.0
this: 111.0
balanced: false
1-0: 145-111

0100110000000010100001011100111011000011010110000111101010001001110110011101000000100111010011111011001100110100111001001001001000011010010011011011011110101110011000100001111000010100101110101011000111110100110000100100101101110100011001111111110100110111
max: 120.0
this: 110.0
balanced: true
1-0: 128-128

0100000001010100100111101111010000110000101000011100101010100000011110111111111100001000000111100011101000011101111110001001101011101000111000111011001101001011010010001101100101101010100100101011101111010110011011001011011000001010110110011010101010100011
max: 120.0
this: 108.0
balanced: true
1-0: 128-128

1001011000111100001101101110111100000101101111011101100000110010110100000010111010000100100001000111111101011110101000111010111000011001100110110111110101011001010100110000011011000010110101110000100010110101101001011100101001010111010001100000111100011001
max: 120.0
this: 110.0
balanced: true
1-0: 128-128

0110100011000011110100000111100010101011011010001100000000100111111111110100011001100101010111000101100011101000101111101001010101110110110111110100111001100110010010011110010001001101001011101000100010100001011111011101010000010011100000010000111011010010
max: 120.0
this: 112.0
balanced: false
1-0: 126-130

0001011100110011001111010100100101101011111111011000010101100110100000001110001100010001101111011110101110111111010110011011100000110110110001001111000010011111010000011000000110001100001000110000110111001101001001010101101010101001101001001011101011000110
max: 120.0
this: 112.0
balanced: true
1-0: 128-128

0000101101011100011101111000010100110010010010100000100100110010011111000111101011111010101010011111111110101100110010001000111111101101011010100101110101001010010001001001001011101010001001000000000010001011111111000111100011110100111110011100000110011000
max: 120.0
this: 112.0
balanced: true
1-0: 128-128